20-08-11 13:59:34: SQLSTATE[HY000] [1049] Unknown database 'auth'
20-08-11 14:00:11: SQLSTATE[HY000] [1049] Unknown database 'auth'
20-08-11 14:00:11: SQLSTATE[HY000] [1049] Unknown database 'auth'
20-08-11 14:00:12: SQLSTATE[HY000] [1049] Unknown database 'auth'
20-08-11 14:00:12: SQLSTATE[HY000] [1049] Unknown database 'auth'
20-08-11 14:00:27: SQLSTATE[HY000] [1049] Unknown database 'auth'
20-08-11 14:00:27: SQLSTATE[HY000] [1049] Unknown database 'auth'
20-08-11 14:00:27: SQLSTATE[HY000] [1049] Unknown database 'auth'
20-08-14 07:46:18: SQLSTATE[HY000] [1049] Unknown database 'aut'
20-08-14 07:47:05: SQLSTATE[HY000] [1049] Unknown database 'aut'
20-08-14 07:47:05: SQLSTATE[HY000] [1049] Unknown database 'aut'
20-08-14 07:47:05: SQLSTATE[HY000] [1049] Unknown database 'aut'
